[
    {
        "url": "https://gitea.com/y36369999/9/raw/branch/9/9/5.json",
        "title": "线路1",
        "time": "2022-08-24 02:03:04"
    },
    {
        "url": "https://gitea.com/y36369999/9/raw/branch/9/9/5.json",
        "title": "线路2",
        "time": "2022-08-24 02:03:04"
    },
    {
        "url": "https://gitea.com/y36369999/9/raw/branch/9/9/5.json",
        "title": "线路3",
        "time": "2022-08-24 02:03:04"
    },
    {
        "url": "https://gitea.com/y36369999/9/raw/branch/9/9/5.json",
        "title": "线路4",
        "time": "2022-08-24 02:03:04"
    },
    {
        "url": "https://gitea.com/y36369999/9/raw/branch/9/9/5.json",
        "title": "线路5",
        "time": "2022-08-24 02:03:64"
    },
    {
        "url": "https://gitea.com/y36369999/9/raw/branch/9/9/5.json",
        "title": "线路6",
        "time": "2022-08-24 02:03:04"
    },
    {
        "url": "https://gitea.com/y36369999/9/raw/branch/9/9/5.json",
        "title": "线路7",
        "time": "2022-08-24 02:03:04"
    },
    {
        "url": "https://gitea.com/y36369999/9/raw/branch/9/9/5.json",
        "title": "线路8",
        "time": "2022-08-24 02:03:04"
    },
    {
        "url": "https://gitea.com/y36369999/9/raw/branch/9/9/5.json",
        "title": "线路9",
        "time": "2022-08-24 02:03:04"
    },
    {
        "url": "https://gitea.com/y36369999/9/raw/branch/9/9/5.json",
        "title": "线路10",
        "time": "2022-08-24 02:03:04"
    },
    {
        "url": "https://gitea.com/y36369999/9/raw/branch/9/9/5.json",
        "title": "线路11",
        "time": "2022-08-24 02:03:04"
    },
    {
        "url": "https://gitea.com/y36369999/9/raw/branch/9/9/5.json",
        "title": "线路12",
        "time": "2022-08-24 02:03:04"
    },
    {
        "url": "https://gitea.com/y36369999/9/raw/branch/9/9/5.json",
        "title": "线路13",
        "time": "2022-08-24 02:03:04"
    },
    {
        "url": "https://gitea.com/y36369999/9/raw/branch/9/9/5.json",
        "title": "线路14",
        "time": "2022-08-24 02:03:04"
    },
    {
        "url": "https://gitea.com/y36369999/9/raw/branch/9/9/5.json",
        "title": "线路15",
        "time": "2022-08-24 02:03:04"
    }
]